{
    "name": "medium_debezium",
    "config": {
        "connector.class": "io.debezium.connector.mysql.MySqlConnector",
        "topic.prefix": "topics_prefix",
        "tasks.max": "1",
        "database.hostname": "mysql",
        "database.port": "3306",
        "database.user": "root",
        "database.password": "debezium",
        "database.server.id": "184054",
        "database.server.name": "dbserver1",
        "database.include.list": "inventory",
        "database.history.kafka.topic": "schema-changes.inventory",
        "database.history.kafka.bootstrap.servers": "kafka:9092",
        "include.schema.changes": "true",
        "snapshot.mode": "initial",
        "snapshot.locking.mode": "none",
        "schema.history.internal.kafka.topic": "schema-history.inventory",
        "schema.history.internal.kafka.bootstrap.servers": "kafka:9092",
        "transforms": "outbox",
        "transforms.outbox.predicate": "IsOutboxTable",
        "transforms.outbox.type": "io.debezium.transforms.outbox.EventRouter",
        "predicates": "IsOutboxTable",
        "predicates.IsOutboxTable.type": "org.apache.kafka.connect.transforms.predicates.TopicNameMatches",
        "predicates.IsOutboxTable.pattern": "topics_prefix.inventory.outbox",
        "transforms.outbox.table.field.event.payload": "payload"
    }
}